Practica0/Ejercicio1/simulation/qsim/P1_ejer1.msim.vcd
$comment
	File created using the following command:
		vcd file P1_ejer1.msim.vcd -direction
$end
$date
	Tue Oct 05 17:49:14 2021
$end
$version
	ModelSim Version 10.5b
$end
$timescale
	1ps
$end

$scope module fulladder_vlg_vec_tst $end
$var reg 4 ! a [3:0] $end
$var reg 4 " b [3:0] $end
$var reg 1 # cin $end
$var wire 1 $ cout $end
$var wire 1 % s [3] $end
$var wire 1 & s [2] $end
$var wire 1 ' s [1] $end
$var wire 1 ( s [0] $end

$scope module i1 $end
$var wire 1 ) gnd $end
$var wire 1 * vcc $end
$var wire 1 + unknown $end
$var tri1 1 , devclrn $end
$var tri1 1 - devpor $end
$var tri1 1 . devoe $end
$var wire 1 / s[0]~output_o $end
$var wire 1 0 s[1]~output_o $end
$var wire 1 1 s[2]~output_o $end
$var wire 1 2 s[3]~output_o $end
$var wire 1 3 cout~output_o $end
$var wire 1 4 cin~input_o $end
$var wire 1 5 a[0]~input_o $end
$var wire 1 6 b[0]~input_o $end
$var wire 1 7 A1|s~0_combout $end
$var wire 1 8 A1|cout~0_combout $end
$var wire 1 9 b[1]~input_o $end
$var wire 1 : a[1]~input_o $end
$var wire 1 ; A2|s~combout $end
$var wire 1 < a[2]~input_o $end
$var wire 1 = b[2]~input_o $end
$var wire 1 > A2|cout~0_combout $end
$var wire 1 ? A3|s~combout $end
$var wire 1 @ A3|cout~0_combout $end
$var wire 1 A b[3]~input_o $end
$var wire 1 B a[3]~input_o $end
$var wire 1 C A4|s~combout $end
$var wire 1 D A4|cout~0_combout $end
$upscope $end
$upscope $end
$enddefinitions $end
#0
$dumpvars
b0 !
b1001 "
0#
0$
1(
0'
0&
1%
0)
1*
x+
1,
1-
1.
1/
00
01
12
03
04
05
16
17
08
09
0:
0;
0<
0=
0>
0?
0@
1A
0B
1C
0D
$end
#20000
b1000 !
b1000 "
1#
06
1B
14
1D
0C
02
13
1$
0%
#40000
b1100 !
b1101 !
b0 "
b100 "
b101 !
b101 "
0#
16
1=
0A
15
1<
0B
04
18
1@
07
0D
03
0/
0(
0$
1;
1C
12
10
1'
1%
#60000
b111 !
b111 "
19
1:
1>
1?
11
1&
#80000
b11 !
b10 !
b1111 "
b1011 "
b1010 !
b1010 "
1#
06
0=
1A
05
0<
1B
14
08
0@
17
1D
13
1/
1(
1$
0;
0C
02
00
0'
0%
#100000
b1000 !
b1000 "
b1100 !
b1101 !
b1100 "
b1101 "
16
09
1=
15
0:
1<
18
0>
1@
1;
0?
1C
12
01
10
1'
0&
1%
#120000
b1001 !
b1001 "
0=
0<
0@
0C
02
0%
#140000
b1000 !
b1000 "
b1100 !
b1100 "
06
1=
05
1<
08
1@
0;
1C
12
00
0'
1%
#160000
b100 "
b100 !
0#
b0 !
b0 "
0<
0B
0=
0A
04
0@
0D
07
0/
03
0$
0(
0C
02
0%
#180000
b10 !
b10 "
19
1:
1>
1?
11
1&
#220000
b1010 "
b1010 !
1#
b1110 !
b1110 "
1<
1B
1=
1A
14
1@
1D
17
1/
13
1$
1(
1C
12
1%
#240000
b1111 !
b1111 "
b1101 !
b1101 "
b101 "
b101 !
0#
16
09
0A
15
0:
0B
04
18
0>
07
0D
03
0/
0(
0$
1;
0?
01
10
1'
0&
#260000
b111 !
b111 "
19
1:
1>
1?
11
1&
#280000
b110 !
b110 "
b1110 "
b1110 !
1#
06
1A
05
1B
14
08
17
1D
13
1/
1(
1$
0;
00
0'
#320000
b1100 !
b1100 "
b100 "
b100 !
0#
09
0A
0:
0B
04
0>
0D
07
0/
03
0$
0(
0?
01
0&
#340000
b1100 "
b1100 !
1#
1B
1A
14
1D
17
1/
13
1$
1(
