Practica1/simulation/qsim/Practica1.msim.vcd
$comment
	File created using the following command:
		vcd file Practica1.msim.vcd -direction
$end
$date
	Wed Oct 27 22:05:42 2021
$end
$version
	ModelSim Version 10.5b
$end
$timescale
	1ps
$end

$scope module Lights_set_vlg_vec_tst $end
$var reg 1 ! iCLK $end
$var reg 1 " iENABLE $end
$var reg 1 # iRST_n $end
$var wire 1 $ LEDS_out [7] $end
$var wire 1 % LEDS_out [6] $end
$var wire 1 & LEDS_out [5] $end
$var wire 1 ' LEDS_out [4] $end
$var wire 1 ( LEDS_out [3] $end
$var wire 1 ) LEDS_out [2] $end
$var wire 1 * LEDS_out [1] $end
$var wire 1 + LEDS_out [0] $end

$scope module i1 $end
$var wire 1 , gnd $end
$var wire 1 - vcc $end
$var wire 1 . unknown $end
$var tri1 1 / devclrn $end
$var tri1 1 0 devpor $end
$var tri1 1 1 devoe $end
$var wire 1 2 iENABLE~input_o $end
$var wire 1 3 iCLK~input_o $end
$var wire 1 4 iRST_n~input_o $end
$var wire 1 5 LEDS_out[0]~output_o $end
$var wire 1 6 LEDS_out[1]~output_o $end
$var wire 1 7 LEDS_out[2]~output_o $end
$var wire 1 8 LEDS_out[3]~output_o $end
$var wire 1 9 LEDS_out[4]~output_o $end
$var wire 1 : LEDS_out[5]~output_o $end
$var wire 1 ; LEDS_out[6]~output_o $end
$var wire 1 < LEDS_out[7]~output_o $end
$upscope $end
$upscope $end
$enddefinitions $end
#0
$dumpvars
0!
1"
1#
0+
0*
0)
0(
0'
0&
0%
1$
0,
1-
x.
1/
10
11
12
03
14
05
06
07
08
09
0:
0;
1<
$end
#10000
1!
13
#20000
0!
03
#30000
1!
13
#40000
0!
03
#50000
1!
13
#60000
0!
03
#70000
1!
13
#80000
0!
03
#90000
1!
13
#100000
0!
03
#110000
1!
13
#120000
0!
03
#130000
1!
13
#140000
0!
03
#150000
1!
13
#160000
0!
03
#170000
1!
13
#180000
0!
03
#190000
1!
13
#200000
0!
03
#210000
1!
13
#220000
0!
03
#230000
1!
13
#240000
0!
03
#250000
1!
13
#260000
0!
03
#270000
1!
13
#280000
0!
03
#290000
1!
13
#300000
0!
03
#310000
1!
13
#320000
0!
03
#330000
1!
13
#340000
0!
03
#350000
1!
13
#360000
0!
03
#370000
1!
13
#380000
0!
03
#390000
1!
13
#400000
0!
03
#410000
1!
13
#420000
0!
03
#430000
1!
13
#440000
0!
03
#450000
1!
13
#460000
0!
03
#470000
1!
13
#480000
0!
03
#490000
1!
13
#500000
0!
03
#510000
1!
13
#520000
0!
03
#530000
1!
13
#540000
0!
03
#550000
1!
13
#560000
0!
03
#570000
1!
13
#580000
0!
03
#590000
1!
13
#600000
0!
03
#610000
1!
13
#620000
0!
03
#630000
1!
13
#640000
0!
03
#650000
1!
13
#660000
0!
03
#670000
1!
13
#680000
0!
03
#690000
1!
13
#700000
0!
03
#710000
1!
13
#720000
0!
03
#730000
1!
13
#740000
0!
03
#750000
1!
13
#760000
0!
03
#770000
1!
13
#780000
0!
03
#790000
1!
13
#800000
0!
03
#810000
1!
13
#820000
0!
03
#830000
1!
13
#840000
0!
03
#850000
1!
13
#860000
0!
03
#870000
1!
13
#880000
0!
03
#890000
1!
13
#900000
0!
03
#910000
1!
13
#920000
0!
03
#930000
1!
13
#940000
0!
03
#950000
1!
13
#960000
0!
03
#970000
1!
13
#980000
0!
03
#990000
1!
13
