Practica1/simulation/qsim/Practica1.msim.vcd
$comment
	File created using the following command:
		vcd file Practica1.msim.vcd -direction
$end
$date
	Tue Oct 19 18:59:30 2021
$end
$version
	ModelSim Version 10.5b
$end
$timescale
	1ps
$end

$scope module contador_vlg_vec_tst $end
$var reg 1 ! iCLK $end
$var reg 1 " iENABLE $end
$var reg 1 # iRST_n $end
$var reg 1 $ iUP_DOWN $end
$var wire 1 % oCOUNT [4] $end
$var wire 1 & oCOUNT [3] $end
$var wire 1 ' oCOUNT [2] $end
$var wire 1 ( oCOUNT [1] $end
$var wire 1 ) oCOUNT [0] $end
$var wire 1 * oTC $end

$scope module i1 $end
$var wire 1 + gnd $end
$var wire 1 , vcc $end
$var wire 1 - unknown $end
$var tri1 1 . devclrn $end
$var tri1 1 / devpor $end
$var tri1 1 0 devoe $end
$var wire 1 1 oCOUNT[0]~output_o $end
$var wire 1 2 oCOUNT[1]~output_o $end
$var wire 1 3 oCOUNT[2]~output_o $end
$var wire 1 4 oCOUNT[3]~output_o $end
$var wire 1 5 oCOUNT[4]~output_o $end
$var wire 1 6 oTC~output_o $end
$var wire 1 7 iCLK~input_o $end
$var wire 1 8 iCLK~inputclkctrl_outclk $end
$var wire 1 9 oCOUNT[0]~5_combout $end
$var wire 1 : Add1~0_combout $end
$var wire 1 ; oCOUNT[0]~6 $end
$var wire 1 < oCOUNT[1]~10_combout $end
$var wire 1 = Add1~1 $end
$var wire 1 > Add1~2_combout $end
$var wire 1 ? iUP_DOWN~input_o $end
$var wire 1 @ iRST_n~input_o $end
$var wire 1 A iENABLE~input_o $end
$var wire 1 B oCOUNT[0]~9_combout $end
$var wire 1 C oCOUNT[1]~reg0_q $end
$var wire 1 D oCOUNT[1]~11 $end
$var wire 1 E oCOUNT[2]~12_combout $end
$var wire 1 F Add1~3 $end
$var wire 1 G Add1~4_combout $end
$var wire 1 H Equal1~0_combout $end
$var wire 1 I oCOUNT~14_combout $end
$var wire 1 J oCOUNT[2]~reg0_q $end
$var wire 1 K oCOUNT[2]~13 $end
$var wire 1 L oCOUNT[3]~15_combout $end
$var wire 1 M Add1~5 $end
$var wire 1 N Add1~6_combout $end
$var wire 1 O oCOUNT~17_combout $end
$var wire 1 P oCOUNT[3]~reg0_q $end
$var wire 1 Q oCOUNT[3]~16 $end
$var wire 1 R oCOUNT[4]~18_combout $end
$var wire 1 S Add1~7 $end
$var wire 1 T Add1~8_combout $end
$var wire 1 U oCOUNT[4]~reg0_q $end
$var wire 1 V oCOUNT[0]~7_combout $end
$var wire 1 W oCOUNT[0]~8_combout $end
$var wire 1 X oCOUNT[0]~reg0_q $end
$upscope $end
$upscope $end
$enddefinitions $end
#0
$dumpvars
0!
1"
1#
0$
0)
0(
0'
0&
0%
0*
0+
1,
x-
1.
1/
10
01
02
03
04
05
06
07
08
19
1:
0;
0<
0=
1>
0?
1@
1A
1B
0C
1D
0E
1F
1G
1H
0I
0J
0K
0L
0M
1N
0O
0P
1Q
0R
1S
1T
0U
0V
0W
0X
$end
#5000
1!
17
18
1X
1U
1C
12
15
11
0H
1=
0:
1;
0T
1O
1I
0F
0>
1)
1%
1(
09
1R
1<
1>
0D
1M
0G
0<
0S
0N
0I
1E
1T
0O
#10000
0!
07
08
#15000
1!
17
18
0X
01
0=
1:
0;
0)
19
0>
1D
1<
0E
#20000
0!
07
08
#25000
1!
17
18
1X
0C
02
11
1=
0:
1;
1F
1>
1)
0(
09
0<
0F
0>
0M
1G
1<
1M
0G
1S
1N
1I
0S
0N
0I
0T
1O
1T
0O
#30000
0!
07
08
#35000
1!
17
18
0X
01
1H
0=
1:
0;
0)
19
1F
1>
0<
0M
1G
1S
1N
1I
0T
1O
#40000
0!
07
08
#45000
1!
17
18
1X
0U
1P
1J
1C
12
13
14
05
11
0H
1=
0:
1;
1T
0O
0I
0S
0N
1M
0G
0F
0>
1)
0%
1&
1'
1(
09
0R
1L
1E
1<
1>
0D
0T
1N
1G
0<
1K
1O
1I
0E
0Q
0L
1R
#50000
0!
07
08
#55000
1!
17
18
0X
01
0=
1:
0;
0)
19
0>
1D
1<
0K
1E
1Q
1L
0R
#60000
0!
07
08
#65000
1!
17
18
1X
0C
02
11
1=
0:
1;
1F
1>
1)
0(
09
0<
0F
0>
0G
1<
1G
0I
1I
#70000
0!
07
08
#75000
1!
17
18
0X
01
0=
1:
0;
0)
19
1F
1>
0<
0G
0I
#80000
0!
07
08
#85000
1!
17
18
1X
0J
1C
12
03
11
1=
0:
1;
0M
1G
0F
0>
1)
0'
1(
09
0E
1<
1>
0D
0N
1I
1M
0G
0<
0O
1N
0I
1E
1O
#90000
0!
07
08
#95000
1!
17
18
0X
01
0=
1:
0;
0)
19
0>
1D
1<
0E
#100000
0!
07
08
#105000
1!
17
18
1X
0C
02
11
1=
0:
1;
1F
1>
1)
0(
09
0<
0F
0>
0M
1G
1<
1M
0G
0N
1I
1N
0I
0O
1O
#110000
0!
07
08
#115000
1!
17
18
0X
01
0=
1:
0;
0)
19
1F
1>
0<
0M
1G
0N
1I
0O
#120000
0!
07
08
#125000
1!
17
18
1X
0P
1J
1C
12
13
04
11
1=
0:
1;
1S
1N
1M
0G
0F
0>
1)
0&
1'
1(
09
0L
1E
1<
1>
0D
1T
1O
0S
0N
0I
1G
0<
1K
0T
0O
1I
0E
1L
#130000
0!
07
08
#135000
1!
17
18
0X
01
0=
1:
0;
0)
19
0>
1D
1<
0K
1E
0L
#140000
0!
07
08
#145000
1!
17
18
1X
0C
02
11
1=
0:
1;
1F
1>
1)
0(
09
0<
0F
0>
0G
1<
1G
0I
1I
#150000
0!
07
08
#155000
1!
17
18
0X
01
0=
1:
0;
0)
19
1F
1>
0<
0G
0I
#160000
0!
07
08
#165000
1!
17
18
1X
0J
1C
12
03
11
1=
0:
1;
0M
1G
0F
0>
1)
0'
1(
09
0E
1<
1>
0D
1S
1N
1I
1M
0G
0<
1T
1O
0S
0N
0I
1E
0T
0O
#170000
0!
07
08
#175000
1!
17
18
0X
01
0=
1:
0;
0)
19
0>
1D
1<
0E
#180000
0!
07
08
#185000
1!
17
18
1X
0C
02
11
1=
0:
1;
1F
1>
1)
0(
09
0<
0F
0>
0M
1G
1<
1M
0G
1S
1N
1I
0S
0N
0I
1T
1O
0T
0O
#190000
0!
07
08
#195000
1!
17
18
0X
01
1H
0=
1:
0;
0)
19
1O
1I
1F
1>
0<
0M
1G
1S
1N
0I
1T
0O
#200000
0!
07
08
#205000
1!
17
18
1X
1U
1C
12
15
11
0H
1=
0:
1;
0T
1O
1I
0F
0>
1)
1%
1(
09
1R
1<
1>
0D
1M
0G
0<
0S
0N
0I
1E
1T
0O
#210000
0!
07
08
#215000
1!
17
18
0X
01
0=
1:
0;
0)
19
0>
1D
1<
0E
#220000
0!
07
08
#225000
1!
17
18
1X
0C
02
11
1=
0:
1;
1F
1>
1)
0(
09
0<
0F
0>
0M
1G
1<
1M
0G
1S
1N
1I
0S
0N
0I
0T
1O
1T
0O
#230000
0!
07
08
#235000
1!
17
18
0X
01
1H
0=
1:
0;
0)
19
1F
1>
0<
0M
1G
1S
1N
1I
0T
1O
#240000
0!
07
08
#245000
1!
17
18
1X
0U
1P
1J
1C
12
13
14
05
11
0H
1=
0:
1;
1T
0O
0I
0S
0N
1M
0G
0F
0>
1)
0%
1&
1'
1(
09
0R
1L
1E
1<
1>
0D
0T
1N
1G
0<
1K
1O
1I
0E
0Q
0L
1R
#250000
0!
07
08
#255000
1!
17
18
0X
01
0=
1:
0;
0)
19
0>
1D
1<
0K
1E
1Q
1L
0R
#260000
0!
07
08
#265000
1!
17
18
1X
0C
02
11
1=
0:
1;
1F
1>
1)
0(
09
0<
0F
0>
0G
1<
1G
0I
1I
#270000
0!
07
08
#275000
1!
17
18
0X
01
0=
1:
0;
0)
19
1F
1>
0<
0G
0I
#280000
0!
07
08
#285000
1!
17
18
1X
0J
1C
12
03
11
1=
0:
1;
0M
1G
0F
0>
1)
0'
1(
09
0E
1<
1>
0D
0N
1I
1M
0G
0<
0O
1N
0I
1E
1O
#290000
0!
07
08
#295000
1!
17
18
0X
01
0=
1:
0;
0)
19
0>
1D
1<
0E
#300000
0!
07
08
#305000
1!
17
18
1X
0C
02
11
1=
0:
1;
1F
1>
1)
0(
09
0<
0F
0>
0M
1G
1<
1M
0G
0N
1I
1N
0I
0O
1O
#310000
0!
07
08
#315000
1!
17
18
0X
01
0=
1:
0;
0)
19
1F
1>
0<
0M
1G
0N
1I
0O
#320000
0!
07
08
#325000
1!
17
18
1X
0P
1J
1C
12
13
04
11
1=
0:
1;
1S
1N
1M
0G
0F
0>
1)
0&
1'
1(
09
0L
1E
1<
1>
0D
1T
1O
0S
0N
0I
1G
0<
1K
0T
0O
1I
0E
1L
#330000
0!
07
08
#335000
1!
17
18
0X
01
0=
1:
0;
0)
19
0>
1D
1<
0K
1E
0L
#340000
0!
07
08
#345000
1!
17
18
1X
0C
02
11
1=
0:
1;
1F
1>
1)
0(
09
0<
0F
0>
0G
1<
1G
0I
1I
#350000
0!
07
08
#355000
1!
17
18
0X
01
0=
1:
0;
0)
19
1F
1>
0<
0G
0I
#360000
0!
07
08
#365000
1!
17
18
1X
0J
1C
12
03
11
1=
0:
1;
0M
1G
0F
0>
1)
0'
1(
09
0E
1<
1>
0D
1S
1N
1I
1M
0G
0<
1T
1O
0S
0N
0I
1E
0T
0O
#370000
0!
07
08
#375000
1!
17
18
0X
01
0=
1:
0;
0)
19
0>
1D
1<
0E
#380000
0!
07
08
#385000
1!
17
18
1X
0C
02
11
1=
0:
1;
1F
1>
1)
0(
09
0<
0F
0>
0M
1G
1<
1M
0G
1S
1N
1I
0S
0N
0I
1T
1O
0T
0O
#390000
0!
07
08
#395000
1!
17
18
0X
01
1H
0=
1:
0;
0)
19
1O
1I
1F
1>
0<
0M
1G
1S
1N
0I
1T
0O
#400000
0!
07
08
#405000
1!
17
18
1X
1U
1C
12
15
11
0H
1=
0:
1;
0T
1O
1I
0F
0>
1)
1%
1(
09
1R
1<
1>
0D
1M
0G
0<
0S
0N
0I
1E
1T
0O
#410000
0!
07
08
#415000
1!
17
18
0X
01
0=
1:
0;
0)
19
0>
1D
1<
0E
#420000
0!
07
08
#425000
1!
17
18
1X
0C
02
11
1=
0:
1;
1F
1>
1)
0(
09
0<
0F
0>
0M
1G
1<
1M
0G
1S
1N
1I
0S
0N
0I
0T
1O
1T
0O
#430000
0!
07
08
#435000
1!
17
18
0X
01
1H
0=
1:
0;
0)
19
1F
1>
0<
0M
1G
1S
1N
1I
0T
1O
#440000
0!
07
08
#445000
1!
17
18
1X
0U
1P
1J
1C
12
13
14
05
11
0H
1=
0:
1;
1T
0O
0I
0S
0N
1M
0G
0F
0>
1)
0%
1&
1'
1(
09
0R
1L
1E
1<
1>
0D
0T
1N
1G
0<
1K
1O
1I
0E
0Q
0L
1R
#450000
0!
07
08
#455000
1!
17
18
0X
01
0=
1:
0;
0)
19
0>
1D
1<
0K
1E
1Q
1L
0R
#460000
0!
07
08
#465000
1!
17
18
1X
0C
02
11
1=
0:
1;
1F
1>
1)
0(
09
0<
0F
0>
0G
1<
1G
0I
1I
#470000
0!
07
08
#475000
1!
17
18
0X
01
0=
1:
0;
0)
19
1F
1>
0<
0G
0I
#480000
0!
07
08
#485000
1!
17
18
1X
0J
1C
12
03
11
1=
0:
1;
0M
1G
0F
0>
1)
0'
1(
09
0E
1<
1>
0D
0N
1I
1M
0G
0<
0O
1N
0I
1E
1O
#490000
0!
07
08
#495000
1!
17
18
0X
01
0=
1:
0;
0)
19
0>
1D
1<
0E
#500000
0"
0!
0A
07
08
0B
#505000
1!
17
18
#510000
0!
07
08
#515000
1!
17
18
#520000
0!
07
08
#525000
1!
17
18
#530000
0!
07
08
#535000
1!
17
18
#540000
0!
07
08
#545000
1!
17
18
#550000
0!
07
08
#555000
1!
17
18
#560000
0!
07
08
#565000
1!
17
18
#570000
0!
07
08
#575000
1!
17
18
#580000
0!
07
08
#585000
1!
17
18
#590000
0!
07
08
#595000
1!
17
18
#600000
0!
07
08
#605000
1!
17
18
#610000
0!
07
08
#615000
1!
17
18
#620000
0!
07
08
#625000
1!
17
18
#630000
0!
07
08
#635000
1!
17
18
#640000
0!
07
08
#645000
1!
17
18
#650000
0!
07
08
#655000
1!
17
18
#660000
0!
07
08
#665000
1!
17
18
#670000
0!
07
08
#675000
1!
17
18
#680000
0!
07
08
#685000
1!
17
18
#690000
0!
07
08
#695000
1!
17
18
#700000
0!
07
08
#705000
1!
17
18
#710000
0!
07
08
#715000
1!
17
18
#720000
0!
07
08
#725000
1!
17
18
#730000
0!
07
08
#735000
1!
17
18
#740000
0!
07
08
#745000
1!
17
18
#750000
0!
07
08
#755000
1!
17
18
#760000
0!
07
08
#765000
1!
17
18
#770000
0!
07
08
#775000
1!
17
18
#780000
0!
07
08
#785000
1!
17
18
#790000
0!
07
08
#795000
1!
17
18
#800000
0!
07
08
#805000
1!
17
18
#810000
0!
07
08
#815000
1!
17
18
#820000
0!
07
08
#825000
1!
17
18
#830000
0!
07
08
#835000
1!
17
18
#840000
0!
07
08
#845000
1!
17
18
#850000
0!
07
08
#855000
1!
17
18
#860000
0!
07
08
#865000
1!
17
18
#870000
0!
07
08
#875000
1!
17
18
#880000
0!
07
08
#885000
1!
17
18
#890000
0!
07
08
#895000
1!
17
18
#900000
0!
07
08
#905000
1!
17
18
#910000
0!
07
08
#915000
1!
17
18
#920000
0!
07
08
#925000
1!
17
18
#930000
0!
07
08
#935000
1!
17
18
#940000
0!
07
08
#945000
1!
17
18
#950000
0!
07
08
#955000
1!
17
18
#960000
0!
07
08
#965000
1!
17
18
#970000
0!
07
08
#975000
1!
17
18
#980000
0!
07
08
#985000
1!
17
18
#990000
0!
07
08
#995000
1!
17
18
