Practica1/simulation/qsim/Practica1.msim.vcd
$comment
	File created using the following command:
		vcd file Practica1.msim.vcd -direction
$end
$date
	Tue Oct 26 18:27:53 2021
$end
$version
	ModelSim Version 10.5b
$end
$timescale
	1ps
$end

$scope module registro7_vlg_vec_tst $end
$var reg 1 ! iCLK $end
$var reg 1 " iENABLE $end
$var reg 1 # iRST_n $end
$var reg 1 $ iSR $end
$var wire 1 % oPR [6] $end
$var wire 1 & oPR [5] $end
$var wire 1 ' oPR [4] $end
$var wire 1 ( oPR [3] $end
$var wire 1 ) oPR [2] $end
$var wire 1 * oPR [1] $end
$var wire 1 + oPR [0] $end
$var wire 1 , oSR $end

$scope module i1 $end
$var wire 1 - gnd $end
$var wire 1 . vcc $end
$var wire 1 / unknown $end
$var tri1 1 0 devclrn $end
$var tri1 1 1 devpor $end
$var tri1 1 2 devoe $end
$var wire 1 3 oPR[0]~output_o $end
$var wire 1 4 oPR[1]~output_o $end
$var wire 1 5 oPR[2]~output_o $end
$var wire 1 6 oPR[3]~output_o $end
$var wire 1 7 oPR[4]~output_o $end
$var wire 1 8 oPR[5]~output_o $end
$var wire 1 9 oPR[6]~output_o $end
$var wire 1 : oSR~output_o $end
$var wire 1 ; iCLK~input_o $end
$var wire 1 < iCLK~inputclkctrl_outclk $end
$var wire 1 = iRST_n~input_o $end
$var wire 1 > iSR~input_o $end
$var wire 1 ? x~7_combout $end
$var wire 1 @ iENABLE~input_o $end
$var wire 1 A x[0]~1_combout $end
$var wire 1 B x~6_combout $end
$var wire 1 C x~5_combout $end
$var wire 1 D x~4_combout $end
$var wire 1 E x~3_combout $end
$var wire 1 F x~2_combout $end
$var wire 1 G x~0_combout $end
$var wire 1 H x [6] $end
$var wire 1 I x [5] $end
$var wire 1 J x [4] $end
$var wire 1 K x [3] $end
$var wire 1 L x [2] $end
$var wire 1 M x [1] $end
$var wire 1 N x [0] $end
$upscope $end
$upscope $end
$enddefinitions $end
#0
$dumpvars
0!
1"
1#
1$
0+
0*
0)
0(
0'
0&
0%
0,
0-
1.
x/
10
11
12
03
04
05
06
07
08
09
0:
0;
0<
1=
1>
1?
1@
1A
0B
0C
0D
0E
0F
0G
0N
0M
0L
0K
0J
0I
0H
$end
#10000
1!
0$
1;
0>
1<
0?
1H
19
1%
1B
#20000
0!
0;
0<
#30000
1!
1;
1<
1I
0H
09
18
1&
0%
1C
0B
#40000
1$
0!
1>
0;
0<
1?
#50000
1!
1;
1<
1J
0I
1H
19
08
17
1'
0&
1%
1D
0C
1B
#60000
0!
0;
0<
#70000
0$
1!
0>
1;
1<
0?
1K
0J
1I
18
07
16
1(
0'
1&
1E
0D
1C
#80000
0!
0;
0<
#90000
1!
1;
1<
1L
0K
1J
0H
09
17
06
15
1)
0(
1'
0%
1F
0E
1D
0B
#100000
1$
0!
1>
0;
0<
1?
#110000
1!
1;
1<
1M
0L
1K
0I
1H
19
08
16
05
14
1*
0)
1(
0&
1%
1G
0F
1E
0C
1B
#120000
0$
0!
0>
0;
0<
0?
#130000
1$
1!
1>
1;
1<
1?
1N
0M
1L
0J
1I
0H
09
18
07
15
04
13
1:
1,
1+
0*
1)
0'
1&
0%
0G
1F
0D
1C
0B
#140000
0$
0!
0>
0;
0<
0?
#150000
1!
1;
1<
0N
1M
0K
1J
0I
08
17
06
14
03
0:
0,
0+
1*
0(
1'
0&
1G
0E
1D
0C
#160000
0!
0;
0<
#170000
1!
1;
1<
1N
0L
1K
0J
07
16
05
13
1:
1,
1+
0)
1(
0'
0F
1E
0D
#180000
0!
0;
0<
#190000
1$
1!
1>
1;
1<
1?
0M
1L
0K
06
15
04
0*
1)
0(
0G
1F
0E
#200000
0!
0;
0<
#210000
0$
1!
0>
1;
1<
0?
0N
1M
0L
1H
19
05
14
03
0:
0,
0+
1*
0)
1%
1G
0F
1B
#220000
1$
0!
1>
0;
0<
1?
#230000
0$
1!
0>
1;
1<
0?
1N
0M
1I
18
04
13
1:
1,
1+
0*
1&
0G
1C
#240000
0!
0;
0<
#250000
1$
1!
1>
1;
1<
1?
0N
1J
0H
09
17
03
0:
0,
0+
1'
0%
1D
0B
#260000
0!
0;
0<
#270000
1!
1;
1<
1K
0I
1H
19
08
16
1(
0&
1%
1E
0C
1B
#280000
0!
0;
0<
#290000
0$
1!
0>
1;
1<
0?
1L
0J
1I
18
07
15
1)
0'
1&
1F
0D
1C
#300000
0#
0!
0=
0;
0<
0F
0E
0C
0B
#310000
1!
1;
1<
0L
0K
0I
0H
09
08
06
05
0)
0(
0&
0%
#320000
0!
0;
0<
#330000
1!
1;
1<
#340000
1$
0!
1>
0;
0<
#350000
1#
0$
1!
1=
0>
1;
1<
#360000
1$
0!
1>
0;
0<
1?
#370000
1!
1;
1<
1H
19
1%
1B
#380000
0$
0!
0>
0;
0<
0?
#390000
1$
1!
1>
1;
1<
1?
1I
0H
09
18
1&
0%
1C
0B
#400000
0$
0!
0>
0;
0<
0?
#410000
1!
1;
1<
1J
0I
08
17
1'
0&
1D
0C
#420000
0!
0;
0<
#430000
1$
1!
1>
1;
1<
1?
1K
0J
07
16
1(
0'
1E
0D
#440000
0"
0!
0@
0;
0<
0A
#450000
0$
1!
0>
1;
1<
0?
#460000
0!
0;
0<
#470000
1!
1;
1<
#480000
1$
0!
1>
0;
0<
1?
#490000
1!
1;
1<
#500000
0!
0;
0<
#510000
0$
1!
0>
1;
1<
0?
#520000
1$
0!
1>
0;
0<
1?
#530000
1!
1;
1<
#540000
0$
0!
0>
0;
0<
0?
#550000
1!
1;
1<
#560000
0!
0;
0<
#570000
1!
1;
1<
#580000
1$
0!
1>
0;
0<
1?
#590000
1!
1;
1<
#600000
0!
0;
0<
#610000
1!
1;
1<
#620000
0!
0;
0<
#630000
0$
1!
0>
1;
1<
0?
#640000
0!
0;
0<
#650000
1!
1;
1<
#660000
0!
0;
0<
#670000
1$
1!
1>
1;
1<
1?
#680000
0$
0!
0>
0;
0<
0?
#690000
1$
1!
1>
1;
1<
1?
#700000
0!
0;
0<
#710000
0$
1!
0>
1;
1<
0?
#720000
0!
0;
0<
#730000
1!
1;
1<
#740000
1$
0!
1>
0;
0<
1?
#750000
1!
1;
1<
#760000
0!
0;
0<
#770000
1!
1;
1<
#780000
0!
0;
0<
#790000
1!
1;
1<
#800000
0$
0!
0>
0;
0<
0?
#810000
1$
1!
1>
1;
1<
1?
#820000
0!
0;
0<
#830000
1!
1;
1<
#840000
0$
0!
0>
0;
0<
0?
#850000
1$
1!
1>
1;
1<
1?
#860000
0$
0!
0>
0;
0<
0?
#870000
1$
1!
1>
1;
1<
1?
#880000
0!
0;
0<
#890000
1!
1;
1<
#900000
0$
0!
0>
0;
0<
0?
#910000
1!
1;
1<
#920000
1$
0!
1>
0;
0<
1?
#930000
0$
1!
0>
1;
1<
0?
#940000
0!
0;
0<
#950000
1$
1!
1>
1;
1<
1?
#960000
0$
0!
0>
0;
0<
0?
#970000
1$
1!
1>
1;
1<
1?
#980000
0!
0;
0<
#990000
1!
1;
1<
